Lesson 8: SLR: Model Diagnostics
…
The Cook’s distance for the \(i^{th}\) observation is

\[d_i = \frac{h_i}{2(1-h_i)} \cdot r_i^2\] where \(h_i\) is the leverage and \(r_i\) is the studentized residual

Another rule for Cook’s distance that is not strict:

Investigate observations that have \(d_i > 1\)

Cook’s distance values are already in the augment tibble: .cooksd

aug1 = aug1 %>% relocate(.cooksd, .after = FemaleLiteracyRate)
aug1 %>% arrange(desc(.cooksd))

# A tibble: 80 × 24
   country        LifeExpectancyYrs FemaleLiteracyRate .cooksd   .hat .std.resid
   <chr>                      <dbl>              <dbl>   <dbl>  <dbl>      <dbl>
 1 Central Afric…              48                 44.2  0.126  0.0493     -2.20 
 2 Swaziland                   48.9               87.3  0.0903 0.0133     -3.65 
 3 South Africa                55.8               92.2  0.0577 0.0154     -2.71 
 4 Zimbabwe                    51.9               80.1  0.0531 0.0126     -2.89 
 5 Morocco                     73.8               57.6  0.0350 0.0277      1.57 
 6 Nepal                       68.7               46.7  0.0311 0.0446      1.15 
 7 Bangladesh                  71                 53.4  0.0280 0.0335      1.27 
 8 Botswana                    58.9               85.6  0.0249 0.0129     -1.95 
 9 Equatorial Gu…              61.4               91.1  0.0231 0.0148     -1.75 
10 Gambia                      66                 41.9  0.0228 0.0540      0.894
# ℹ 70 more rows
# ℹ 18 more variables: .fitted <dbl>, .resid <dbl>, .sigma <dbl>,
#   CO2emissions <dbl>, ElectricityUsePP <dbl>, FoodSupplykcPPD <dbl>,
#   IncomePP <dbl>, population <dbl>, WaterSourcePrct <dbl>, geo <chr>,
#   four_regions <chr>, eight_regions <chr>, six_regions <chr>,
#   members_oecd_g77 <chr>, Latitude <dbl>, Longitude <dbl>,
#   `World bank region` <chr>, `World bank, 4 income groups 2017` <chr>
…
